{
	"info": {
		"_postman_id": "66e4e050-a796-468e-9617-3c0412585bd3",
		"name": "WeAre",
		"schema": "https://schema.getpostman.com/json/collection/v2.1.0/collection.json"
	},
	"item": [
		{
			"name": "Comments",
			"item": [
				{
					"name": "AuthenticationComments",
					"event": [
						{
							"listen": "test",
							"script": {
								"exec": [
									"pm.collectionVariables.set('SessionCookie', pm.cookies.get(\"JSESSIONID\"));\r",
									"\r",
									"console.log(pm.cookies.get(\"JSESSIONID\"));"
								],
								"type": "text/javascript"
							}
						}
					],
					"request": {
						"method": "POST",
						"header": [],
						"body": {
							"mode": "urlencoded",
							"urlencoded": [
								{
									"key": "username",
									"value": "{{AdminUsername}}",
									"type": "text"
								},
								{
									"key": "password",
									"value": "{{AdminPass}}",
									"type": "text"
								}
							]
						},
						"url": {
							"raw": "{{URL}}/authenticate",
							"host": [
								"{{URL}}"
							],
							"path": [
								"authenticate"
							]
						}
					},
					"response": []
				},
				{
					"name": "FindAllComments",
					"event": [
						{
							"listen": "test",
							"script": {
								"exec": [
									"pm.test(\"Status code is 200\", function () {\r",
									"    pm.response.to.have.status(200);\r",
									"});\r",
									"\r",
									"pm.test(\"Assert that response body is not empty\", function () {\r",
									"    var resBody = (_.isEmpty(responseBody));\r",
									"    pm.expect(resBody).to.be.false;\r",
									"})\r",
									"\r",
									"pm.test(\"Body contains string\",() => {\r",
									"  pm.expect(pm.response.text()).to.include(\"content\");\r",
									"});\r",
									"\r",
									"var data = JSON.parse(responseBody);\r",
									"\r",
									"pm.test(\"CommentID is different than 0\", function () {\r",
									"pm.expect(data.commentId).to.not.eql(0);\r",
									"});\r",
									"\r",
									"\r",
									"for (count = 0; count < data.length; count++)\r",
									"{\r",
									"    var commentId = data[count].commentId;\r",
									"    var content = data[count].content;\r",
									"\r",
									"    pm.test(\"Assert that the content of comment \" + commentId + \" contains string\", function () {\r",
									"    pm.expect(content).to.be.a('string');\r",
									"    });\r",
									"\r",
									"    pm.collectionVariables.set(\"MaxCommentId\", Math.max(commentId));\r",
									"};\r",
									""
								],
								"type": "text/javascript"
							}
						}
					],
					"request": {
						"method": "GET",
						"header": [],
						"url": {
							"raw": "{{URL}}/api/comment?sorted=true&unsorted=false",
							"host": [
								"{{URL}}"
							],
							"path": [
								"api",
								"comment"
							],
							"query": [
								{
									"key": "sorted",
									"value": "true"
								},
								{
									"key": "unsorted",
									"value": "false"
								}
							]
						}
					},
					"response": []
				},
				{
					"name": "CreateComment",
					"event": [
						{
							"listen": "test",
							"script": {
								"exec": [
									"pm.test(\"Status code is 200\", function () {\r",
									"    pm.response.to.have.status(200);\r",
									"});\r",
									"\r",
									"var data = JSON.parse(responseBody);\r",
									"\r",
									"pm.test(\"CommentID is greater than 0\", function () {\r",
									"    pm.expect(data.commentId).to.greaterThan(0);\r",
									"});\r",
									"\r",
									"pm.test(\"Body content contains a string\",function () {\r",
									"  pm.expect(data.content).to.be.a('string');\r",
									"});\r",
									"\r",
									"pm.test(\"Comment Id is greater than other comment Id's\",function () {\r",
									"  pm.expect(data.commentId).to.greaterThan(pm.collectionVariables.get(\"MaxCommentId\"))\r",
									"});\r",
									"\r",
									"pm.collectionVariables.set(\"CommentID\", data.commentId);\r",
									"pm.collectionVariables.get(\"CommentID\");\r",
									"pm.collectionVariables.set(\"CommentContent\", data.content);\r",
									"pm.collectionVariables.get(\"CommentContent\")"
								],
								"type": "text/javascript"
							}
						}
					],
					"request": {
						"method": "POST",
						"header": [],
						"body": {
							"mode": "raw",
							"raw": "{\r\n  \"commentId\": 106,\r\n  \"content\": \"{{$randomLoremSentence}}\",\r\n  \"deletedConfirmed\": true,\r\n  \"postId\": 72,\r\n  \"userId\": 39\r\n}",
							"options": {
								"raw": {
									"language": "json"
								}
							}
						},
						"url": {
							"raw": "{{URL}}/api/comment/auth/creator",
							"host": [
								"{{URL}}"
							],
							"path": [
								"api",
								"comment",
								"auth",
								"creator"
							]
						}
					},
					"response": []
				},
				{
					"name": "EditComment",
					"event": [
						{
							"listen": "test",
							"script": {
								"exec": [
									"pm.test(\"Status code is 200\", function () {\r",
									"    pm.response.to.have.status(200);\r",
									"});\r",
									""
								],
								"type": "text/javascript"
							}
						}
					],
					"request": {
						"method": "PUT",
						"header": [],
						"url": {
							"raw": "{{URL}}/api/comment/auth/editor?commentId={{CommentID}}&content={{$randomLoremSentence}}",
							"host": [
								"{{URL}}"
							],
							"path": [
								"api",
								"comment",
								"auth",
								"editor"
							],
							"query": [
								{
									"key": "commentId",
									"value": "{{CommentID}}"
								},
								{
									"key": "content",
									"value": "{{$randomLoremSentence}}"
								}
							]
						}
					},
					"response": []
				},
				{
					"name": "VeriifyCommentUpdate",
					"event": [
						{
							"listen": "test",
							"script": {
								"exec": [
									"\r",
									"var data = JSON.parse(responseBody);\r",
									"\r",
									"for (count = 0; count < data.length; count++)\r",
									"{\r",
									"    var commentId = data[count].commentId;\r",
									"    var content = data[count].content;\r",
									"\r",
									"    if( commentId === pm.collectionVariables.get(\"CommentID\")){\r",
									"\r",
									"        pm.test(\"The comment was changed\", function () {\r",
									"        pm.expect(content).to.be.not.eql(pm.collectionVariables.get(\"CommentContent\"));\r",
									"    });\r",
									"        pm.test(\"Assert that the content contains string\", function () {\r",
									"        pm.expect(content).to.be.a('string');\r",
									"    });\r",
									"    }\r",
									"};\r",
									""
								],
								"type": "text/javascript"
							}
						}
					],
					"request": {
						"method": "GET",
						"header": [],
						"url": {
							"raw": "{{URL}}/api/comment?sorted=true&unsorted=false",
							"host": [
								"{{URL}}"
							],
							"path": [
								"api",
								"comment"
							],
							"query": [
								{
									"key": "sorted",
									"value": "true"
								},
								{
									"key": "unsorted",
									"value": "false"
								}
							]
						}
					},
					"response": []
				},
				{
					"name": "LikeComment",
					"event": [
						{
							"listen": "test",
							"script": {
								"exec": [
									"pm.test(\"Status code is 200\", function () {\r",
									"    pm.response.to.have.status(200);\r",
									"});\r",
									"\r",
									"var jsonData = pm.response.json();\r",
									"\r",
									"pm.test(\"ID of comment is the same as from request\", function () {\r",
									"    pm.expect(jsonData.commentId).to.eql(pm.collectionVariables.get(\"CommentID\"));\r",
									"});\r",
									"\r",
									"pm.test(\"Check the comment if there is a like\", function () {\r",
									"    pm.expect(jsonData.liked).to.eql(true);\r",
									"});\r",
									"\r",
									"pm.test(\"Count of likes is not NULL\", function () {\r",
									"    pm.expect(jsonData.likes).to.not.eql(null);\r",
									"});\r",
									""
								],
								"type": "text/javascript"
							}
						}
					],
					"request": {
						"method": "POST",
						"header": [],
						"body": {
							"mode": "formdata",
							"formdata": []
						},
						"url": {
							"raw": "{{URL}}/api/comment/auth/likesUp?commentId={{CommentID}}&name={{UserUsername}}",
							"host": [
								"{{URL}}"
							],
							"path": [
								"api",
								"comment",
								"auth",
								"likesUp"
							],
							"query": [
								{
									"key": "commentId",
									"value": "{{CommentID}}"
								},
								{
									"key": "name",
									"value": "{{UserUsername}}"
								}
							]
						}
					},
					"response": []
				},
				{
					"name": "DeleteComment",
					"event": [
						{
							"listen": "test",
							"script": {
								"exec": [
									"pm.test(\"Status code is 200\", function () {\r",
									"    pm.response.to.have.status(200);\r",
									"});\r",
									""
								],
								"type": "text/javascript"
							}
						}
					],
					"request": {
						"method": "DELETE",
						"header": [],
						"url": {
							"raw": "{{URL}}/api/comment/auth/manager?commentId={{CommentID}}&name={{AdminUsername}}",
							"host": [
								"{{URL}}"
							],
							"path": [
								"api",
								"comment",
								"auth",
								"manager"
							],
							"query": [
								{
									"key": "commentId",
									"value": "{{CommentID}}"
								},
								{
									"key": "name",
									"value": "{{AdminUsername}}"
								}
							]
						}
					},
					"response": []
				},
				{
					"name": "VeriifyCommentDeleted",
					"event": [
						{
							"listen": "test",
							"script": {
								"exec": [
									"var data = JSON.parse(responseBody);\r",
									"\r",
									"var commentId = data[0].commentId;\r",
									"    \r",
									"pm.test(\"The comment was deleted\", function () {\r",
									"pm.expect(commentId).to.be.not.eql(pm.collectionVariables.get(\"CommentID\"));\r",
									"});\r",
									"\r",
									"pm.collectionVariables.set(\"GetOneCommentID\", data[0].commentId);\r",
									"pm.collectionVariables.get(\"GetOneCommentID\");\r",
									""
								],
								"type": "text/javascript"
							}
						}
					],
					"request": {
						"method": "GET",
						"header": [],
						"url": {
							"raw": "{{URL}}/api/comment?sorted=true&unsorted=false",
							"host": [
								"{{URL}}"
							],
							"path": [
								"api",
								"comment"
							],
							"query": [
								{
									"key": "sorted",
									"value": "true"
								},
								{
									"key": "unsorted",
									"value": "false"
								}
							]
						}
					},
					"response": []
				},
				{
					"name": "FindAllCommentOfPost",
					"event": [
						{
							"listen": "test",
							"script": {
								"exec": [
									"pm.test(\"Status code is 200\", function () {\r",
									"    pm.response.to.have.status(200);\r",
									"});\r",
									"\r",
									"var jsonData = pm.response.json();\r",
									"\r",
									"pm.test(\"CommentID is different than 0\", function () {\r",
									"    pm.expect(jsonData.commentId).to.not.be.eql(0);\r",
									"});\r",
									"\r",
									"pm.test(\"Body content contains a string\",function () {\r",
									"  pm.expect(jsonData[0].content).to.be.a(\"string\");\r",
									"});"
								],
								"type": "text/javascript"
							}
						}
					],
					"request": {
						"method": "GET",
						"header": [],
						"url": {
							"raw": "{{URL}}/api/comment/byPost?name={{AdminUsername}}&postId=72&sorted=true&unsorted=false",
							"host": [
								"{{URL}}"
							],
							"path": [
								"api",
								"comment",
								"byPost"
							],
							"query": [
								{
									"key": "name",
									"value": "{{AdminUsername}}"
								},
								{
									"key": "postId",
									"value": "72"
								},
								{
									"key": "sorted",
									"value": "true"
								},
								{
									"key": "unsorted",
									"value": "false"
								}
							]
						}
					},
					"response": []
				},
				{
					"name": "GetOneComment",
					"event": [
						{
							"listen": "test",
							"script": {
								"exec": [
									"pm.test(\"Status code is 200\", function () {\r",
									"    pm.response.to.have.status(200);\r",
									"});\r",
									"\r",
									"var jsonData = pm.response.json();\r",
									"\r",
									"pm.test(\"CommentID is different than 0\", function () {\r",
									"    pm.expect(jsonData.commentId).to.not.be.eql(0);\r",
									"});\r",
									"\r",
									"pm.test(\"Body content contains a string\",function () {\r",
									"  pm.expect(jsonData.content).to.be.a(\"string\");\r",
									"});"
								],
								"type": "text/javascript"
							}
						}
					],
					"request": {
						"method": "GET",
						"header": [],
						"url": {
							"raw": "{{URL}}/api/comment/single?commentId={{GetOneCommentID}}",
							"host": [
								"{{URL}}"
							],
							"path": [
								"api",
								"comment",
								"single"
							],
							"query": [
								{
									"key": "commentId",
									"value": "{{GetOneCommentID}}"
								}
							]
						}
					},
					"response": []
				}
			],
			"event": [
				{
					"listen": "prerequest",
					"script": {
						"type": "text/javascript",
						"exec": [
							""
						]
					}
				},
				{
					"listen": "test",
					"script": {
						"type": "text/javascript",
						"exec": [
							""
						]
					}
				}
			]
		},
		{
			"name": "Connctions",
			"item": [
				{
					"name": "AuthenticationConnections",
					"event": [
						{
							"listen": "test",
							"script": {
								"exec": [
									"pm.collectionVariables.set('SessionCookie', pm.cookies.get(\"JSESSIONID\"));\r",
									"\r",
									"console.log(pm.cookies.get(\"JSESSIONID\"));"
								],
								"type": "text/javascript"
							}
						}
					],
					"request": {
						"method": "POST",
						"header": [],
						"body": {
							"mode": "urlencoded",
							"urlencoded": [
								{
									"key": "username",
									"value": "{{AdminUsername}}",
									"type": "text"
								},
								{
									"key": "password",
									"value": "{{AdminPass}}",
									"type": "text"
								}
							]
						},
						"url": {
							"raw": "{{URL}}/authenticate",
							"host": [
								"{{URL}}"
							],
							"path": [
								"authenticate"
							]
						}
					},
					"response": []
				},
				{
					"name": "SendConnectionReqest",
					"event": [
						{
							"listen": "test",
							"script": {
								"exec": [
									"pm.test(\"Status code is 200\", function () {\r",
									"    pm.response.to.have.status(200);\r",
									"});\r",
									"\r",
									"pm.test(\"Body matches string\", function () {\r",
									"    pm.expect(pm.response.text()).to.include(\"send friend request\");\r",
									"});"
								],
								"type": "text/javascript"
							}
						}
					],
					"request": {
						"method": "POST",
						"header": [],
						"body": {
							"mode": "raw",
							"raw": "{\r\n  \"id\": {{UserID}},\r\n  \"username\": \"{{UserUsername}}\"\r\n}",
							"options": {
								"raw": {
									"language": "json"
								}
							}
						},
						"url": {
							"raw": "{{URL}}/api/auth/request?name=\"Ico Kostov\"",
							"host": [
								"{{URL}}"
							],
							"path": [
								"api",
								"auth",
								"request"
							],
							"query": [
								{
									"key": "name",
									"value": "\"Ico Kostov\""
								}
							]
						}
					},
					"response": []
				},
				{
					"name": "GetUserReqest",
					"event": [
						{
							"listen": "test",
							"script": {
								"exec": [
									"pm.test(\"Successful get request\", function () {\r",
									"    pm.response.to.have.status(200);\r",
									"});"
								],
								"type": "text/javascript"
							}
						}
					],
					"request": {
						"method": "GET",
						"header": [],
						"url": {
							"raw": "{{URL}}/api/auth/users/{{AdminID}}/request/",
							"host": [
								"{{URL}}"
							],
							"path": [
								"api",
								"auth",
								"users",
								"{{AdminID}}",
								"request",
								""
							]
						}
					},
					"response": []
				},
				{
					"name": "GetRequestID",
					"event": [
						{
							"listen": "prerequest",
							"script": {
								"exec": [
									""
								],
								"type": "text/javascript"
							}
						},
						{
							"listen": "test",
							"script": {
								"exec": [
									"var data = JSON.parse(responseBody); \r",
									"\r",
									"for (count = 0; count < data.length; count++)\r",
									"{\r",
									"    if (data[count].sender_user_id === 39 && data[count].receiver_user_id === 42)\r",
									"    {\r",
									"        var connectionID = data[count].id;\r",
									"        postman.setEnvironmentVariable(\"ConnectionID\", connectionID);\r",
									"    }\r",
									"};"
								],
								"type": "text/javascript"
							}
						}
					],
					"request": {
						"method": "GET",
						"header": [],
						"url": {
							"raw": "localhost:3000/api/requests",
							"host": [
								"localhost"
							],
							"port": "3000",
							"path": [
								"api",
								"requests"
							]
						}
					},
					"response": []
				},
				{
					"name": "ApproveRequest",
					"event": [
						{
							"listen": "test",
							"script": {
								"exec": [
									"pm.test(\"Status code is 200\", function () {\r",
									"    pm.response.to.have.status(200);\r",
									"});\r",
									"\r",
									"pm.test(\"Body matches string\", function () {\r",
									"    pm.expect(pm.response.text()).to.include(\"approved request\");\r",
									"});"
								],
								"type": "text/javascript"
							}
						}
					],
					"request": {
						"method": "POST",
						"header": [],
						"url": {
							"raw": "{{URL}}/api/auth/users/{{AdminID}}/request/approve?requestId={{ConnectionID}}",
							"host": [
								"{{URL}}"
							],
							"path": [
								"api",
								"auth",
								"users",
								"{{AdminID}}",
								"request",
								"approve"
							],
							"query": [
								{
									"key": "requestId",
									"value": "{{ConnectionID}}"
								}
							]
						}
					},
					"response": []
				},
				{
					"name": "DisconnectFromUser",
					"event": [
						{
							"listen": "test",
							"script": {
								"exec": [
									"pm.test(\"Disconnect from user succesfull\", function () {\r",
									"    pm.response.to.have.status(200);\r",
									"});\r",
									""
								],
								"type": "text/javascript"
							}
						}
					],
					"request": {
						"method": "POST",
						"header": [],
						"body": {
							"mode": "raw",
							"raw": "{\r\n  \"id\": {{UserID}},\r\n  \"username\": \"{{UserUsername}}\"\r\n}",
							"options": {
								"raw": {
									"language": "json"
								}
							}
						},
						"url": {
							"raw": "{{URL}}/api/auth/request?name=\"Ico Kostov\"",
							"host": [
								"{{URL}}"
							],
							"path": [
								"api",
								"auth",
								"request"
							],
							"query": [
								{
									"key": "name",
									"value": "\"Ico Kostov\""
								}
							]
						}
					},
					"response": []
				}
			]
		},
		{
			"name": "Posts",
			"item": [
				{
					"name": "AuthenticationPosts",
					"event": [
						{
							"listen": "test",
							"script": {
								"exec": [
									"pm.collectionVariables.set('SessionCookie', pm.cookies.get(\"JSESSIONID\"));\r",
									"\r",
									"console.log(pm.cookies.get(\"JSESSIONID\"));"
								],
								"type": "text/javascript"
							}
						}
					],
					"request": {
						"method": "POST",
						"header": [],
						"body": {
							"mode": "urlencoded",
							"urlencoded": [
								{
									"key": "username",
									"value": "{{AdminUsername}}",
									"type": "text"
								},
								{
									"key": "password",
									"value": "{{AdminPass}}",
									"type": "text"
								}
							]
						},
						"url": {
							"raw": "{{URL}}/authenticate",
							"host": [
								"{{URL}}"
							],
							"path": [
								"authenticate"
							]
						}
					},
					"response": []
				},
				{
					"name": "FindAllPosts",
					"event": [
						{
							"listen": "test",
							"script": {
								"exec": [
									"pm.test(\"Status code is 200\", function () {\r",
									"    pm.response.to.have.status(200);\r",
									"});\r",
									"\r",
									"var jsonData = pm.response.json();\r",
									"\r",
									"pm.test(\"Post Id is not 0\", function () {\r",
									"    pm.expect(jsonData.postId).to.not.eql(0);\r",
									"});\r",
									"\r",
									"var data = JSON.parse(responseBody);\r",
									"\r",
									"for (count = 0; count < data.length; count++)\r",
									"{\r",
									"    var content = data[count].content;\r",
									"    var postID = data[count].postId;\r",
									"   \r",
									"    pm.test(\"Assert that the content of the post \" + postID + \" contains string\", function () {\r",
									"    pm.expect(content).to.be.a('string');\r",
									"    });\r",
									"\r",
									"    pm.collectionVariables.set(\"MaxPostId\", Math.max(postID));\r",
									"};\r",
									"console.log(\"MaxPostId\");"
								],
								"type": "text/javascript"
							}
						}
					],
					"request": {
						"method": "GET",
						"header": [],
						"url": {
							"raw": "{{URL}}/api/post/?sorted=true&unsorted=false",
							"host": [
								"{{URL}}"
							],
							"path": [
								"api",
								"post",
								""
							],
							"query": [
								{
									"key": "sorted",
									"value": "true"
								},
								{
									"key": "unsorted",
									"value": "false"
								}
							]
						}
					},
					"response": []
				},
				{
					"name": "CreatePost",
					"event": [
						{
							"listen": "test",
							"script": {
								"exec": [
									"pm.test(\"Post was posted successful\", function () {\r",
									"    pm.response.to.have.status(200);\r",
									"});\r",
									"\r",
									"var jsonData = pm.response.json();\r",
									"\r",
									"pm.test(\"Post ID is different than 0\", function () {\r",
									"    pm.expect(jsonData.postId).to.not.eql(0);\r",
									"});\r",
									"\r",
									"pm.test(\"Post ID is greater than other posts ID\", function () {\r",
									"    pm.expect(jsonData.postId).to.greaterThan(pm.collectionVariables.get(\"MaxPostId\"));\r",
									"});\r",
									"\r",
									"pm.test(\"Content of post contains a string\",function () {\r",
									"  pm.expect(jsonData.content).to.be.a('string');\r",
									"});\r",
									"\r",
									"pm.collectionVariables.set(\"NewPostId\", jsonData.postId);\r",
									"pm.collectionVariables.set(\"PostContent\", jsonData.content);\r",
									"\r",
									""
								],
								"type": "text/javascript"
							}
						}
					],
					"request": {
						"method": "POST",
						"header": [],
						"body": {
							"mode": "raw",
							"raw": "{\r\n  \"content\": \"{{$randomLoremSentences}}\",\r\n  \"picture\": \"none\",\r\n  \"public\": true\r\n}",
							"options": {
								"raw": {
									"language": "json"
								}
							}
						},
						"url": {
							"raw": "{{URL}}/api/post/auth/creator/",
							"host": [
								"{{URL}}"
							],
							"path": [
								"api",
								"post",
								"auth",
								"creator",
								""
							]
						}
					},
					"response": []
				},
				{
					"name": "EditPost",
					"event": [
						{
							"listen": "test",
							"script": {
								"exec": [
									"pm.test(\"Status code is 200\", function () {\r",
									"    pm.response.to.have.status(200);\r",
									"});"
								],
								"type": "text/javascript"
							}
						}
					],
					"request": {
						"method": "PUT",
						"header": [],
						"body": {
							"mode": "raw",
							"raw": "{\r\n  \"content\": \"{{$randomLoremSlug}}\",\r\n  \"picture\": \"none\",\r\n  \"public\": true\r\n}",
							"options": {
								"raw": {
									"language": "json"
								}
							}
						},
						"url": {
							"raw": "{{URL}}/api/post/auth/editor?postId={{NewPostId}}",
							"host": [
								"{{URL}}"
							],
							"path": [
								"api",
								"post",
								"auth",
								"editor"
							],
							"query": [
								{
									"key": "postId",
									"value": "{{NewPostId}}"
								}
							]
						}
					},
					"response": []
				},
				{
					"name": "ConfirmPostEdited",
					"event": [
						{
							"listen": "test",
							"script": {
								"exec": [
									"pm.test(\"Status code is 200\", function () {\r",
									"    pm.response.to.have.status(200);\r",
									"});\r",
									"\r",
									"var data = JSON.parse(responseBody);\r",
									"\r",
									"for (count = 0; count < data.length; count++)\r",
									"{\r",
									"    var content = data[count].content;\r",
									"    var postID = data[count].postId;\r",
									"    if ( postID === pm.collectionVariables.get(\"NewPostId\"))\r",
									"    {\r",
									"        pm.collectionVariables.set(\"UpdatedPostContent\", content);\r",
									"    }\r",
									"};\r",
									"pm.test(\"Post content is different than the old post content\", function () {\r",
									"    pm.expect(pm.collectionVariables.get(\"UpdatedPostContent\"))\r",
									"    .to.not.eql(pm.collectionVariables.get(\"PostContent\"));\r",
									"});"
								],
								"type": "text/javascript"
							}
						}
					],
					"request": {
						"method": "GET",
						"header": [],
						"url": {
							"raw": "{{URL}}/api/post/?sorted=true&unsorted=false",
							"host": [
								"{{URL}}"
							],
							"path": [
								"api",
								"post",
								""
							],
							"query": [
								{
									"key": "sorted",
									"value": "true"
								},
								{
									"key": "unsorted",
									"value": "false"
								}
							]
						}
					},
					"response": []
				},
				{
					"name": "LikePost",
					"event": [
						{
							"listen": "test",
							"script": {
								"exec": [
									"pm.test(\"Status code is 200\", function () {\r",
									"    pm.response.to.have.status(200);\r",
									"});\r",
									"var jsonData = pm.response.json();\r",
									"\r",
									"pm.test(\"User ID is not 0\", function () {\r",
									"    pm.expect(jsonData.likes[0].userId).to.not.eql(0);\r",
									"});\r",
									"\r",
									"pm.test(\"Username is a string\", function () {\r",
									"    pm.expect(jsonData.likes[0].username).to.be.a('string');\r",
									"});\r",
									"\r",
									"pm.test(\"Like is enabled\", function () {\r",
									"    pm.expect(jsonData.liked).is.true;\r",
									"});"
								],
								"type": "text/javascript"
							}
						}
					],
					"request": {
						"method": "POST",
						"header": [],
						"url": {
							"raw": "{{URL}}/api/post/auth/likesUp?postId={{NewPostId}}",
							"host": [
								"{{URL}}"
							],
							"path": [
								"api",
								"post",
								"auth",
								"likesUp"
							],
							"query": [
								{
									"key": "postId",
									"value": "{{NewPostId}}"
								}
							]
						}
					},
					"response": []
				},
				{
					"name": "DeletePost",
					"event": [
						{
							"listen": "test",
							"script": {
								"exec": [
									"pm.test(\"Post was successful deleted\", function () {\r",
									"    pm.response.to.have.status(200);\r",
									"});"
								],
								"type": "text/javascript"
							}
						}
					],
					"request": {
						"method": "DELETE",
						"header": [],
						"url": {
							"raw": "{{URL}}/api/post/auth/manager?postId={{NewPostId}}",
							"host": [
								"{{URL}}"
							],
							"path": [
								"api",
								"post",
								"auth",
								"manager"
							],
							"query": [
								{
									"key": "postId",
									"value": "{{NewPostId}}"
								}
							]
						}
					},
					"response": []
				},
				{
					"name": "ConfirmPostDeleted",
					"event": [
						{
							"listen": "test",
							"script": {
								"exec": [
									"pm.test(\"Status code is 200\", function () {\r",
									"    pm.response.to.have.status(200);\r",
									"});\r",
									"\r",
									"pm.test(\"Confirm that postId is not present in the list of posts\", function () {\r",
									"    var jsonData = pm.response.json();\r",
									"    pm.expect(jsonData.postId).not.to.eql(pm.collectionVariables.get(\"NewPostId\"));\r",
									"});"
								],
								"type": "text/javascript"
							}
						}
					],
					"request": {
						"method": "GET",
						"header": [],
						"url": {
							"raw": "{{URL}}/api/post/?sorted=true&unsorted=false",
							"host": [
								"{{URL}}"
							],
							"path": [
								"api",
								"post",
								""
							],
							"query": [
								{
									"key": "sorted",
									"value": "true"
								},
								{
									"key": "unsorted",
									"value": "false"
								}
							]
						}
					},
					"response": []
				},
				{
					"name": "ShowPostsComment",
					"event": [
						{
							"listen": "test",
							"script": {
								"exec": [
									"pm.test(\"Status code is 200\", function () {\r",
									"    pm.response.to.have.status(200);\r",
									"});\r",
									"\r",
									"var jsonData = pm.response.json();\r",
									"\r",
									"pm.test(\"Comment ID is not 0\", function () {\r",
									"    pm.expect(jsonData[0].commentId).to.not.eql(0);\r",
									"});\r",
									"\r",
									"pm.test(\"Content is a string\", function () {\r",
									"    pm.expect(jsonData[0].content).to.be.a('string');\r",
									"});"
								],
								"type": "text/javascript"
							}
						}
					],
					"request": {
						"method": "GET",
						"header": [],
						"url": {
							"raw": "{{URL}}/api/post/Comments?postId={{MaxPostId}}",
							"host": [
								"{{URL}}"
							],
							"path": [
								"api",
								"post",
								"Comments"
							],
							"query": [
								{
									"key": "postId",
									"value": "{{MaxPostId}}"
								}
							]
						}
					},
					"response": []
				}
			]
		},
		{
			"name": "Skills",
			"item": [
				{
					"name": "AuthenticationSkills",
					"event": [
						{
							"listen": "test",
							"script": {
								"exec": [
									"pm.collectionVariables.set('SessionCookie', pm.cookies.get(\"JSESSIONID\"));\r",
									"\r",
									"console.log(pm.cookies.get(\"JSESSIONID\"));"
								],
								"type": "text/javascript"
							}
						}
					],
					"request": {
						"method": "POST",
						"header": [],
						"body": {
							"mode": "urlencoded",
							"urlencoded": [
								{
									"key": "username",
									"value": "{{AdminUsername}}",
									"type": "text"
								},
								{
									"key": "password",
									"value": "{{AdminPass}}",
									"type": "text"
								}
							]
						},
						"url": {
							"raw": "{{URL}}/authenticate",
							"host": [
								"{{URL}}"
							],
							"path": [
								"authenticate"
							]
						}
					},
					"response": []
				},
				{
					"name": "FindAllSkills",
					"event": [
						{
							"listen": "test",
							"script": {
								"exec": [
									"var jsonData = pm.response.json();\r",
									"\r",
									"pm.test(\"Skill is a string\", function () {\r",
									"    pm.expect(jsonData[0].skill).to.be.a('string');\r",
									"});\r",
									"\r",
									"pm.test(\"Name of skill is a string\", function () {\r",
									"    pm.expect(jsonData[0].category.name).to.be.a('string');\r",
									"});\r",
									"\r",
									"pm.test(\"Skill ID is different than 0\", function () {\r",
									"    pm.expect(jsonData[0].skillId).to.not.eql(0);\r",
									"});\r",
									"\r",
									"pm.collectionVariables.set(\"MaxSkillId\", Math.max(jsonData[0].skillId));\r",
									"pm.collectionVariables.get(\"MaxSkillId\");\r",
									"pm.collectionVariables.set(\"NextSkillId\", pm.collectionVariables.get(\"MaxSkillId\") + 1 );\r",
									"pm.collectionVariables.get(\"NextSkillId\");\r",
									"\r",
									"\r",
									""
								],
								"type": "text/javascript"
							}
						}
					],
					"request": {
						"method": "GET",
						"header": [],
						"url": {
							"raw": "{{URL}}/api/skill?sorted=true&unsorted=false",
							"host": [
								"{{URL}}"
							],
							"path": [
								"api",
								"skill"
							],
							"query": [
								{
									"key": "sorted",
									"value": "true"
								},
								{
									"key": "unsorted",
									"value": "false"
								}
							]
						}
					},
					"response": []
				},
				{
					"name": "CreateNewSkill",
					"event": [
						{
							"listen": "test",
							"script": {
								"exec": [
									"pm.test(\"Status code is 200\", function () {\r",
									"    pm.response.to.have.status(200);\r",
									"});\r",
									"\r",
									"var jsonData = pm.response.json();\r",
									"\r",
									"pm.test(\"Skill is a string\", function () {\r",
									"    pm.expect(jsonData.skill).to.be.a('string');\r",
									"});\r",
									"\r",
									"pm.test(\"Skill ID is greater than the old one\", function () {\r",
									"    pm.expect(jsonData.skillId).to.greaterThan(pm.collectionVariables.get(\"NewSkillId\"));\r",
									"});\r",
									"\r",
									"pm.collectionVariables.set(\"Skill\", jsonData.skill);\r",
									"\r",
									"pm.collectionVariables.set(\"NewSkillId\", jsonData.skillId);\r",
									"\r",
									"pm.collectionVariables.set(\"CategoryID\", jsonData.category.id);"
								],
								"type": "text/javascript"
							}
						}
					],
					"request": {
						"method": "POST",
						"header": [],
						"body": {
							"mode": "raw",
							"raw": "{\r\n  \"category\": {\r\n  \"id\": 105,\r\n    \"name\": \"Jedi\"\r\n  },\r\n  \"skill\": \"Figthing to the Dark Side\",\r\n  \"skillId\": {{NextSkillId}}\r\n}",
							"options": {
								"raw": {
									"language": "json"
								}
							}
						},
						"url": {
							"raw": "{{URL}}/api/skill/create",
							"host": [
								"{{URL}}"
							],
							"path": [
								"api",
								"skill",
								"create"
							]
						}
					},
					"response": []
				},
				{
					"name": "EditSkill",
					"event": [
						{
							"listen": "test",
							"script": {
								"exec": [
									"pm.test(\"Status code is 200\", function () {\r",
									"    pm.response.to.have.status(200);\r",
									"});\r",
									""
								],
								"type": "text/javascript"
							}
						}
					],
					"request": {
						"method": "PUT",
						"header": [],
						"url": {
							"raw": "{{URL}}/api/skill/edit?skill=We are fighting with Dart Vaider&skillId={{NewSkillId}}",
							"host": [
								"{{URL}}"
							],
							"path": [
								"api",
								"skill",
								"edit"
							],
							"query": [
								{
									"key": "skill",
									"value": "We are fighting with Dart Vaider"
								},
								{
									"key": "skillId",
									"value": "{{NewSkillId}}"
								}
							]
						}
					},
					"response": []
				},
				{
					"name": "ConfirmSkillEdited",
					"event": [
						{
							"listen": "test",
							"script": {
								"exec": [
									"\r",
									"var data = JSON.parse(responseBody);\r",
									"\r",
									"for (count = 0; count < data.length; count++)\r",
									"{\r",
									"    var skillId = data[count].skillId;\r",
									"    var skill = data[count].skill;\r",
									"\r",
									"    if( skillId === pm.collectionVariables.get(\"NewSkillId\")){\r",
									"\r",
									"        pm.test(\"The skill was changed\", function () {\r",
									"        pm.expect(skill).to.be.not.eql(pm.collectionVariables.get(\"Skill\"));\r",
									"    });\r",
									"        pm.test(\"The skill contains a string\", function () {\r",
									"        pm.expect(skill).to.be.a('string');\r",
									"    });\r",
									"    }\r",
									"};\r",
									""
								],
								"type": "text/javascript"
							}
						}
					],
					"request": {
						"method": "GET",
						"header": [],
						"url": {
							"raw": "{{URL}}/api/skill?sorted=true&unsorted=false",
							"host": [
								"{{URL}}"
							],
							"path": [
								"api",
								"skill"
							],
							"query": [
								{
									"key": "sorted",
									"value": "true"
								},
								{
									"key": "unsorted",
									"value": "false"
								}
							]
						}
					},
					"response": []
				},
				{
					"name": "GetOneSkill",
					"event": [
						{
							"listen": "test",
							"script": {
								"exec": [
									"pm.test(\"Status code is 200\", function () {\r",
									"    pm.response.to.have.status(200);\r",
									"});\r",
									"\r",
									"var jsonData = pm.response.json();\r",
									"\r",
									"pm.test(\"Skill Id is the choosen one\", function () {\r",
									"    pm.expect(jsonData.skillId).to.eql(pm.collectionVariables.get(\"NewSkillId\"));\r",
									"});\r",
									"\r",
									"pm.test(\"Cetegory Id is the same\", function () {\r",
									"    pm.expect(jsonData.category.id).to.eql(pm.collectionVariables.get(\"CategoryID\"));\r",
									"});\r",
									""
								],
								"type": "text/javascript"
							}
						}
					],
					"request": {
						"method": "GET",
						"header": [],
						"url": {
							"raw": "{{URL}}/api/skill/getOne?skillId={{NewSkillId}}",
							"host": [
								"{{URL}}"
							],
							"path": [
								"api",
								"skill",
								"getOne"
							],
							"query": [
								{
									"key": "skillId",
									"value": "{{NewSkillId}}"
								}
							]
						}
					},
					"response": []
				},
				{
					"name": "DeleteSkill",
					"event": [
						{
							"listen": "test",
							"script": {
								"exec": [
									"pm.test(\"Status code is 200\", function () {\r",
									"    pm.response.to.have.status(200);\r",
									"});"
								],
								"type": "text/javascript"
							}
						}
					],
					"request": {
						"method": "PUT",
						"header": [],
						"url": {
							"raw": "{{URL}}/api/skill/delete?skillId={{NewSkillId}}",
							"host": [
								"{{URL}}"
							],
							"path": [
								"api",
								"skill",
								"delete"
							],
							"query": [
								{
									"key": "skillId",
									"value": "{{NewSkillId}}"
								}
							]
						}
					},
					"response": []
				},
				{
					"name": "ConfirmSkillDeleted",
					"event": [
						{
							"listen": "test",
							"script": {
								"exec": [
									"var data = JSON.parse(responseBody);\r",
									"\r",
									"var skillId = data[0].skillId;\r",
									"    \r",
									"pm.test(\"The skill was deleted\", function () {\r",
									"pm.expect(skillId).to.be.not.eql(pm.collectionVariables.get(\"NewSkillId\"));\r",
									"});\r",
									""
								],
								"type": "text/javascript"
							}
						}
					],
					"request": {
						"method": "GET",
						"header": [],
						"url": {
							"raw": "{{URL}}/api/skill?sorted=true&unsorted=false",
							"host": [
								"{{URL}}"
							],
							"path": [
								"api",
								"skill"
							],
							"query": [
								{
									"key": "sorted",
									"value": "true"
								},
								{
									"key": "unsorted",
									"value": "false"
								}
							]
						}
					},
					"response": []
				}
			]
		},
		{
			"name": "Users",
			"item": [
				{
					"name": "AuthenticationUsers",
					"event": [
						{
							"listen": "test",
							"script": {
								"exec": [
									"pm.collectionVariables.set('SessionCookie', pm.cookies.get(\"JSESSIONID\"));\r",
									"\r",
									"console.log(pm.cookies.get(\"JSESSIONID\"));"
								],
								"type": "text/javascript"
							}
						}
					],
					"request": {
						"method": "POST",
						"header": [],
						"body": {
							"mode": "urlencoded",
							"urlencoded": [
								{
									"key": "username",
									"value": "{{AdminUsername}}",
									"type": "text"
								},
								{
									"key": "password",
									"value": "{{AdminPass}}",
									"type": "text"
								}
							]
						},
						"url": {
							"raw": "{{URL}}/authenticate",
							"host": [
								"{{URL}}"
							],
							"path": [
								"authenticate"
							]
						}
					},
					"response": []
				},
				{
					"name": "GetUsers",
					"event": [
						{
							"listen": "test",
							"script": {
								"exec": [
									"pm.test(\"Use found with status code 200\", function () {\r",
									"    pm.response.to.have.status(200);\r",
									"});\r",
									"\r",
									"var jsonData = pm.response.json();\r",
									"\r",
									"pm.test(\"User ID is not 0\", function () {\r",
									"    pm.expect(jsonData[0].userId).not.to.eql(0);\r",
									"});\r",
									"\r",
									"pm.test(\"Category name consist search keyword\", function () {\r",
									"    pm.expect(jsonData[0].expertiseProfile.category.name).to.contain(\"Musician\");\r",
									"});\r",
									"\r",
									"pm.test(\"Is user available\", function () {\r",
									"    pm.expect(jsonData[0].enabled).to.be.true;\r",
									"});\r",
									"\r",
									"pm.collectionVariables.set(\"UsersUserId\", jsonData[0].userId);"
								],
								"type": "text/javascript"
							}
						}
					],
					"request": {
						"method": "POST",
						"header": [],
						"body": {
							"mode": "raw",
							"raw": "{\r\n  \"index\": 0,\r\n  \"next\": true,\r\n  \"searchParam1\": \"Musician\",\r\n  \"searchParam2\": \"\",\r\n  \"size\": 1\r\n}",
							"options": {
								"raw": {
									"language": "json"
								}
							}
						},
						"url": {
							"raw": "{{URL}}/api/users",
							"host": [
								"{{URL}}"
							],
							"path": [
								"api",
								"users"
							]
						}
					},
					"response": []
				},
				{
					"name": "RegisterNewUser",
					"event": [
						{
							"listen": "test",
							"script": {
								"exec": [
									"pm.test(\"Status code is 200\", function () {\r",
									"    pm.response.to.have.status(200);\r",
									"});\r",
									"pm.test(\"Body matches string\", function () {\r",
									"    pm.expect(pm.response.text()).to.include(\"was created\");\r",
									"});\r",
									"\r",
									""
								],
								"type": "text/javascript"
							}
						},
						{
							"listen": "prerequest",
							"script": {
								"exec": [
									""
								],
								"type": "text/javascript"
							}
						}
					],
					"request": {
						"method": "POST",
						"header": [],
						"body": {
							"mode": "raw",
							"raw": "{\r\n  \"authorities\": [\r\n    \"ROLE_USER\"\r\n  ],\r\n  \"category\": {\r\n    \"id\": 145,\r\n    \"name\": \"Secretary\"\r\n  },\r\n  \"confirmPassword\": \"123456\",\r\n  \"email\": \"icokostow@gmail.com\",\r\n  \"password\": \"123456\",\r\n  \"username\": \"{{$randomFirstName}}\"\r\n  }",
							"options": {
								"raw": {
									"language": "json"
								}
							}
						},
						"url": {
							"raw": "{{URL}}/api/users/",
							"host": [
								"{{URL}}"
							],
							"path": [
								"api",
								"users",
								""
							]
						}
					},
					"response": []
				},
				{
					"name": "ShowProfilePost",
					"event": [
						{
							"listen": "test",
							"script": {
								"exec": [
									"var jsonData = pm.response.json();\r",
									"\r",
									"pm.test(\"Post ID is a number\", function () {\r",
									"    pm.expect(jsonData[0].postId).to.be.a('number');\r",
									"});\r",
									"\r",
									"pm.test(\"Content is a string\", function () {\r",
									"    pm.expect(jsonData[0].content).to.be.a('string');\r",
									"});\r",
									"\r",
									"pm.test(\"Likes is an array\", function () {\r",
									"    pm.expect(jsonData[0].likes).to.be.an('array');\r",
									"});"
								],
								"type": "text/javascript"
							}
						}
					],
					"protocolProfileBehavior": {
						"disableBodyPruning": true
					},
					"request": {
						"method": "GET",
						"header": [],
						"body": {
							"mode": "raw",
							"raw": "{\r\n  \"index\": 0,\r\n  \"next\": true,\r\n  \"searchParam1\": \"scient\",\r\n  \"searchParam2\": \"\",\r\n  \"size\": 1\r\n}",
							"options": {
								"raw": {
									"language": "json"
								}
							}
						},
						"url": {
							"raw": "{{URL}}/api/users/{{UsersUserId}}/posts",
							"host": [
								"{{URL}}"
							],
							"path": [
								"api",
								"users",
								"{{UsersUserId}}",
								"posts"
							]
						}
					},
					"response": []
				},
				{
					"name": "UpgradeUserExpertiseProfile",
					"event": [
						{
							"listen": "test",
							"script": {
								"exec": [
									"var jsonData = pm.response.json();\r",
									"\r",
									"pm.test(\"User ID is the same and not chaged\", function () {\r",
									"    pm.expect(jsonData.id).to.be.eql(42);\r",
									"});\r",
									"\r",
									"pm.test(\"Skills is an array\", function () {\r",
									"    pm.expect(jsonData.skills).to.be.an('array');\r",
									"});\r",
									"\r",
									"if (jsonData.skills[0].category.id === 137){\r",
									"    \r",
									"pm.test(\"Category ID response right name\", function () {\r",
									"    pm.expect(jsonData.skills[0].category.name).to.eql(\"Plumber\");\r",
									"});\r",
									"};"
								],
								"type": "text/javascript"
							}
						}
					],
					"request": {
						"method": "POST",
						"header": [],
						"body": {
							"mode": "raw",
							"raw": "{\r\n  \"availability\": 1,\r\n  \"category\": {\r\n    \"id\": 137,\r\n    \"name\": \"Plumber\"\r\n  },\r\n  \"id\": 69,\r\n  \"skill1\": \"where it has leaked, it will leak again\",\r\n  \"skill2\": \"\",\r\n  \"skill3\": \"\",\r\n  \"skill4\": \"\",\r\n  \"skill5\": \"\",\r\n  \"skills\": [\r\n    \"Housemaster\"\r\n  ]\r\n}",
							"options": {
								"raw": {
									"language": "json"
								}
							}
						},
						"url": {
							"raw": "{{URL}}/api/users/auth/{{UserID}}/expertise",
							"host": [
								"{{URL}}"
							],
							"path": [
								"api",
								"users",
								"auth",
								"{{UserID}}",
								"expertise"
							]
						}
					},
					"response": []
				},
				{
					"name": "UpgradeUserPersonalProfile",
					"event": [
						{
							"listen": "test",
							"script": {
								"exec": [
									"var jsonData = pm.response.json();\r",
									"\r",
									"pm.test(\"Name is Changed\", function () {\r",
									"    pm.expect(jsonData.firstName).to.not.eql(\"Darth\");\r",
									"});\r",
									"\r",
									"pm.test(\"User ID is the same\", function () {\r",
									"    pm.expect(jsonData.id).to.be.eql(pm.collectionVariables.get(\"UsersUserId\"));\r",
									"});"
								],
								"type": "text/javascript"
							}
						}
					],
					"request": {
						"method": "POST",
						"header": [],
						"body": {
							"mode": "raw",
							"raw": "{\r\n  \"birthYear\": \"\",\r\n  \"firstName\": \"Luk\",\r\n  \"id\": 0,\r\n  \"lastName\": \"SkyWalker\",\r\n  \"location\": {\r\n    \"city\": {\r\n      \"city\": \"Burgas\",\r\n      \"country\": {},\r\n      \"id\": 4\r\n    },\r\n    \"id\": 0\r\n  },\r\n  \"memberSince\": \"\",\r\n  \"personalReview\": \"\",\r\n  \"picture\": \"\",\r\n  \"picturePrivacy\": true,\r\n  \"sex\": \"MALE\"\r\n}",
							"options": {
								"raw": {
									"language": "json"
								}
							}
						},
						"url": {
							"raw": "{{URL}}/api/users/auth/{{UsersUserId}}/personal",
							"host": [
								"{{URL}}"
							],
							"path": [
								"api",
								"users",
								"auth",
								"{{UsersUserId}}",
								"personal"
							]
						}
					},
					"response": []
				}
			]
		}
	],
	"event": [
		{
			"listen": "prerequest",
			"script": {
				"type": "text/javascript",
				"exec": [
					""
				]
			}
		},
		{
			"listen": "test",
			"script": {
				"type": "text/javascript",
				"exec": [
					""
				]
			}
		}
	],
	"variable": [
		{
			"key": "AdminUsername",
			"value": "ucakost"
		},
		{
			"key": "AdminPass",
			"value": "telqa123$"
		},
		{
			"key": "UserUsername",
			"value": "darthvaider"
		},
		{
			"key": "UserPass",
			"value": "telqa123$"
		},
		{
			"key": "CountOfComments",
			"value": 7
		},
		{
			"key": "CommentID",
			"value": 118
		},
		{
			"key": "CommentContent",
			"value": "Harum adipisci aliquam quasi autem magni similique adipisci."
		},
		{
			"key": "GetOneCommentID",
			"value": 100
		},
		{
			"key": "UserID",
			"value": "42"
		},
		{
			"key": "AdminID",
			"value": "39"
		},
		{
			"key": "SessionCookie",
			"value": "BA3876F6D3A63947A7A0A862088296E8"
		},
		{
			"key": "ConnectionID",
			"value": 40
		},
		{
			"key": "MaxPostId",
			"value": 78
		},
		{
			"key": "MaxCommentId",
			"value": 112
		},
		{
			"key": "NewPostId",
			"value": 94
		},
		{
			"key": "PostContent",
			"value": "Fugiat laboriosam modi. Dolores laudantium porro beatae. Occaecati voluptatem qui saepe magnam dolore quae temporibus at."
		},
		{
			"key": "UpdatedPostContent",
			"value": "qui-et-est"
		},
		{
			"key": "Skill",
			"value": "Figthing to the Dark Side"
		},
		{
			"key": "MaxSkillId",
			"value": 81
		},
		{
			"key": "NextSkillId",
			"value": 82
		},
		{
			"key": "NewSkillId",
			"value": 85
		},
		{
			"key": "CategoryID",
			"value": 105
		},
		{
			"key": "UsersUserId",
			"value": 40
		}
	]
}